{
  "files": {
    "main.css": "/static/css/main.d1b05096.chunk.css",
    "main.js": "/static/js/main.d6dbf0ae.chunk.js",
    "main.js.map": "/static/js/main.d6dbf0ae.chunk.js.map",
    "runtime-main.js": "/static/js/runtime-main.bc157ab2.js",
    "runtime-main.js.map": "/static/js/runtime-main.bc157ab2.js.map",
    "static/js/2.17d4946b.chunk.js": "/static/js/2.17d4946b.chunk.js",
    "static/js/2.17d4946b.chunk.js.map": "/static/js/2.17d4946b.chunk.js.map",
    "index.html": "/index.html",
    "precache-manifest.d140aa268ee45dda87d4d4dbb65dc4e6.js": "/precache-manifest.d140aa268ee45dda87d4d4dbb65dc4e6.js",
    "service-worker.js": "/service-worker.js",
    "static/css/main.d1b05096.chunk.css.map": "/static/css/main.d1b05096.chunk.css.map",
    "static/js/2.17d4946b.chunk.js.LICENSE.txt": "/static/js/2.17d4946b.chunk.js.LICENSE.txt",
    "static/media/logo.svg": "/static/media/logo.5d5d9eef.svg"
  },
  "entrypoints": [
    "static/js/runtime-main.bc157ab2.js",
    "static/js/2.17d4946b.chunk.js",
    "static/css/main.d1b05096.chunk.css",
    "static/js/main.d6dbf0ae.chunk.js"
  ]
}